Data Wrangling
…
Data Wrangling

In this short workshop we will focus on Tidyverse. Tidyverse is a
“package of packages” that includes many tools for data organization and
visualization. All of the packages are easy to use together, because
they use the same code grammer. Today we will focus mostly on the
packages “ggplot2” and “dplyr” which are useful for graphing and data
manipulation.

library(tidyverse)
FHB <- as_tibble(FHB) #a tibble is a data frames that works well with the tidyverse
FHB

## # A tibble: 192 × 13
##     YEAR LOC   ENV     REP VAR     TRT    TW   YLD   INC   SEV   IND   FDK   DON
##    <int> <chr> <chr> <int> <chr> <int> <dbl> <dbl> <dbl> <dbl> <dbl> <dbl> <dbl>
##  1  2019 Bell… BEL_…     1 WB44…     1  50.2  68.5    48    75 36       20  2.5 
##  2  2019 Bell… BEL_…     1 WB44…     2  50.6  64.6    30    50 15       30  3.9 
##  3  2019 Bell… BEL_…     1 WB44…     3  53.6  66.7    30    65 19.5     30  3   
##  4  2019 Bell… BEL_…     1 WB44…     4  54.0  81.3    36    60 21.6      8  1.8 
##  5  2019 Bell… BEL_…     1 BobD…     1  55.6  96.6    12    25  3        5  0.8 
##  6  2019 Bell… BEL_…     1 BobD…     2  58.4 117.      5     5  0.25     5  0.82
##  7  2019 Bell… BEL_…     1 BobD…     3  59.4 111.      5     5  0.25     1  0.56
##  8  2019 Bell… BEL_…     1 BobD…     4  60.4 113.      7    40  2.8      3  0.55
##  9  2019 Bell… BEL_…     1 Zenda     1  54.4  79.3     5    50  2.5      4  1.4 
## 10  2019 Bell… BEL_…     1 Zenda     2  61.4  94.8     1     5  0.05     3  0.45
## # ℹ 182 more rows
…
Filtering

It is often important to filter out parts of a data set. For example,
you may want to look at a single time point within a data set. For that,
filter() is useful. This is also a good time to introduce the concept of
the “pipe” which is either “|>” or “%>%”. Note: “|>” was
introduced as the new pipe in R in 2021. Let’s look at an example where
we are filtering out one environment of our field data:

FHB |> filter(ENV == "BEL_19") ## this new data frame won't save unless we assign it to a new object

## # A tibble: 48 × 13
##     YEAR LOC   ENV     REP VAR   TRT      TW   YLD   INC   SEV   IND   FDK   DON
##    <int> <chr> <chr> <int> <chr> <fct> <dbl> <dbl> <dbl> <dbl> <dbl> <dbl> <dbl>
##  1  2019 Bell… BEL_…     1 WB44… 1      50.2  68.5    48    75 36       20  2.5 
##  2  2019 Bell… BEL_…     1 WB44… 2      50.6  64.6    30    50 15       30  3.9 
##  3  2019 Bell… BEL_…     1 WB44… 3      53.6  66.7    30    65 19.5     30  3   
##  4  2019 Bell… BEL_…     1 WB44… 4      54.0  81.3    36    60 21.6      8  1.8 
##  5  2019 Bell… BEL_…     1 BobD… 1      55.6  96.6    12    25  3        5  0.8 
##  6  2019 Bell… BEL_…     1 BobD… 2      58.4 117.      5     5  0.25     5  0.82
##  7  2019 Bell… BEL_…     1 BobD… 3      59.4 111.      5     5  0.25     1  0.56
##  8  2019 Bell… BEL_…     1 BobD… 4      60.4 113.      7    40  2.8      3  0.55
##  9  2019 Bell… BEL_…     1 Zenda 1      54.4  79.3     5    50  2.5      4  1.4 
## 10  2019 Bell… BEL_…     1 Zenda 2      61.4  94.8     1     5  0.05     3  0.45
## # ℹ 38 more rows

FHB2 <- FHB |> filter(ENV == "BEL_19")
FHB2 ## new data frame filters to just a single environment

## # A tibble: 48 × 13
##     YEAR LOC   ENV     REP VAR   TRT      TW   YLD   INC   SEV   IND   FDK   DON
##    <int> <chr> <chr> <int> <chr> <fct> <dbl> <dbl> <dbl> <dbl> <dbl> <dbl> <dbl>
##  1  2019 Bell… BEL_…     1 WB44… 1      50.2  68.5    48    75 36       20  2.5 
##  2  2019 Bell… BEL_…     1 WB44… 2      50.6  64.6    30    50 15       30  3.9 
##  3  2019 Bell… BEL_…     1 WB44… 3      53.6  66.7    30    65 19.5     30  3   
##  4  2019 Bell… BEL_…     1 WB44… 4      54.0  81.3    36    60 21.6      8  1.8 
##  5  2019 Bell… BEL_…     1 BobD… 1      55.6  96.6    12    25  3        5  0.8 
##  6  2019 Bell… BEL_…     1 BobD… 2      58.4 117.      5     5  0.25     5  0.82
##  7  2019 Bell… BEL_…     1 BobD… 3      59.4 111.      5     5  0.25     1  0.56
##  8  2019 Bell… BEL_…     1 BobD… 4      60.4 113.      7    40  2.8      3  0.55
##  9  2019 Bell… BEL_…     1 Zenda 1      54.4  79.3     5    50  2.5      4  1.4 
## 10  2019 Bell… BEL_…     1 Zenda 2      61.4  94.8     1     5  0.05     3  0.45
## # ℹ 38 more rows
…
relocate()

Mutate

You can use mutate() to calculate a new column in your dataframe
based on values in the existing data

FHB |>
  mutate(
    INDEX = (INC*SEV)/100,
    .after = 2 ## put the new column after the second column so we can see it more easily. 
  )

## # A tibble: 192 × 14
##     YEAR LOC   INDEX ENV     REP VAR   TRT      TW   YLD   INC   SEV   IND   FDK
##    <int> <chr> <dbl> <chr> <int> <chr> <fct> <dbl> <dbl> <dbl> <dbl> <dbl> <dbl>
##  1  2019 Bell… 36    BEL_…     1 WB44… 1      50.2  68.5    48    75 36       20
##  2  2019 Bell… 15    BEL_…     1 WB44… 2      50.6  64.6    30    50 15       30
##  3  2019 Bell… 19.5  BEL_…     1 WB44… 3      53.6  66.7    30    65 19.5     30
##  4  2019 Bell… 21.6  BEL_…     1 WB44… 4      54.0  81.3    36    60 21.6      8
##  5  2019 Bell…  3    BEL_…     1 BobD… 1      55.6  96.6    12    25  3        5
##  6  2019 Bell…  0.25 BEL_…     1 BobD… 2      58.4 117.      5     5  0.25     5
##  7  2019 Bell…  0.25 BEL_…     1 BobD… 3      59.4 111.      5     5  0.25     1
##  8  2019 Bell…  2.8  BEL_…     1 BobD… 4      60.4 113.      7    40  2.8      3
##  9  2019 Bell…  2.5  BEL_…     1 Zenda 1      54.4  79.3     5    50  2.5      4
## 10  2019 Bell…  0.05 BEL_…     1 Zenda 2      61.4  94.8     1     5  0.05     3
## # ℹ 182 more rows
## # ℹ 1 more variable: DON <dbl>

Select

This is another option for subsetting out our data.

FHB |>
  select(VAR, TRT, YLD)

## # A tibble: 192 × 3
##    VAR     TRT     YLD
##    <chr>   <fct> <dbl>
##  1 WB4458  1      68.5
##  2 WB4458  2      64.6
##  3 WB4458  3      66.7
##  4 WB4458  4      81.3
##  5 BobDole 1      96.6
##  6 BobDole 2     117. 
##  7 BobDole 3     111. 
##  8 BobDole 4     113. 
##  9 Zenda   1      79.3
## 10 Zenda   2      94.8
## # ℹ 182 more rows

Rename

Sometimes it can be useful to rename our columns without going back
to the origional file.

FHB |>
  rename(Variety = VAR)

## # A tibble: 192 × 13
##     YEAR LOC       ENV     REP Variety TRT      TW   YLD   INC   SEV   IND   FDK
##    <int> <chr>     <chr> <int> <chr>   <fct> <dbl> <dbl> <dbl> <dbl> <dbl> <dbl>
##  1  2019 Bellevil… BEL_…     1 WB4458  1      50.2  68.5    48    75 36       20
##  2  2019 Bellevil… BEL_…     1 WB4458  2      50.6  64.6    30    50 15       30
##  3  2019 Bellevil… BEL_…     1 WB4458  3      53.6  66.7    30    65 19.5     30
##  4  2019 Bellevil… BEL_…     1 WB4458  4      54.0  81.3    36    60 21.6      8
##  5  2019 Bellevil… BEL_…     1 BobDole 1      55.6  96.6    12    25  3        5
##  6  2019 Bellevil… BEL_…     1 BobDole 2      58.4 117.      5     5  0.25     5
##  7  2019 Bellevil… BEL_…     1 BobDole 3      59.4 111.      5     5  0.25     1
##  8  2019 Bellevil… BEL_…     1 BobDole 4      60.4 113.      7    40  2.8      3
##  9  2019 Bellevil… BEL_…     1 Zenda   1      54.4  79.3     5    50  2.5      4
## 10  2019 Bellevil… BEL_…     1 Zenda   2      61.4  94.8     1     5  0.05     3
## # ℹ 182 more rows
## # ℹ 1 more variable: DON <dbl>

Relocate

It can be useful to move columns around in our data frame.

FHB |> 
  relocate(YEAR:REP, .after = TRT) ## here we move the columns from year to rep to after the TRT column 

## # A tibble: 192 × 13
##    VAR   TRT    YEAR LOC   ENV     REP    TW   YLD   INC   SEV   IND   FDK   DON
##    <chr> <fct> <int> <chr> <chr> <int> <dbl> <dbl> <dbl> <dbl> <dbl> <dbl> <dbl>
##  1 WB44… 1      2019 Bell… BEL_…     1  50.2  68.5    48    75 36       20  2.5 
##  2 WB44… 2      2019 Bell… BEL_…     1  50.6  64.6    30    50 15       30  3.9 
##  3 WB44… 3      2019 Bell… BEL_…     1  53.6  66.7    30    65 19.5     30  3   
##  4 WB44… 4      2019 Bell… BEL_…     1  54.0  81.3    36    60 21.6      8  1.8 
##  5 BobD… 1      2019 Bell… BEL_…     1  55.6  96.6    12    25  3        5  0.8 
##  6 BobD… 2      2019 Bell… BEL_…     1  58.4 117.      5     5  0.25     5  0.82
##  7 BobD… 3      2019 Bell… BEL_…     1  59.4 111.      5     5  0.25     1  0.56
##  8 BobD… 4      2019 Bell… BEL_…     1  60.4 113.      7    40  2.8      3  0.55
##  9 Zenda 1      2019 Bell… BEL_…     1  54.4  79.3     5    50  2.5      4  1.4 
## 10 Zenda 2      2019 Bell… BEL_…     1  61.4  94.8     1     5  0.05     3  0.45
## # ℹ 182 more rows
…
